tb_instruction_memory.vcd
$date
	Mon Jun 30 15:50:49 2025
$end
$version
	Icarus Verilog
$end
$timescale
	1ps
$end
$scope module tb_instruction_memory $end
$var wire 32 ! data_out [31:0] $end
$var wire 10 " word_addr [9:0] $end
$var wire 32 # data [31:0] $end
$var wire 32 $ alu_result [31:0] $end
$var reg 32 % alu_in1 [31:0] $end
$var reg 32 & alu_in2 [31:0] $end
$var reg 32 ' byte_addr [31:0] $end
$var reg 1 ( clk $end
$var reg 32 ) data_in [31:0] $end
$var reg 1 * rst $end
$var integer 32 + errors [31:0] $end
$var integer 32 , i [31:0] $end
$var integer 32 - test_count [31:0] $end
$scope module uut $end
$var wire 10 . addr [9:0] $end
$var wire 32 / data_out [31:0] $end
$var parameter 0 0 INIT_FILE $end
$var parameter 32 1 MEM_SIZE $end
$var integer 32 2 i [31:0] $end
$upscope $end
$scope task check_outputs $end
$var reg 400 3 case_name [400:1] $end
$var reg 32 4 exp [31:0] $end
$upscope $end
$scope task run_case $end
$var reg 32 5 addr_in_bytes [31:0] $end
$var reg 400 6 case_name [400:1] $end
$var reg 32 7 exp_data [31:0] $end
$upscope $end
$upscope $end
$enddefinitions $end
$comment Show the parameter values. $end
$dumpall
b10000000000 1
b 0
$end
#0
$dumpvars
b10100110000001010110011 7
b1000110011001010111010001100011011010000010000001000001011001000110010001110010011001010111001101110011001000000011000000100000001000000010100001000001010001000100010000101001 6
b0 5
bx 4
bx 3
b10000000000 2
b10100110000001010110011 /
b0 .
b0 -
b1000000 ,
b0 +
1*
b11011110101011011011111011101111 )
0(
b0 '
b1010 &
b101 %
b1111 $
b10100110000001010110011 #
b0 "
b10100110000001010110011 !
$end
#5000
1(
#10000
b10100010000001010010011 !
b10100010000001010010011 #
b10100010000001010010011 /
b1 "
b1 .
0(
b100 '
b100011001100101011101000110001101101000001000000100000101100100011001000111001001100101011100110111001100100000001101000010000000100000001010000100000101000100010001000100100100101001 6
b10100010000001010010011 7
b100 5
b1 -
b1000110011001010111010001100011011010000010000001000001011001000110010001110010011001010111001101110011001000000011000000100000001000000010100001000001010001000100010000101001 3
b10100110000001010110011 4
#12000
0*
#15000
1(
#20000
b1010001010000011 !
b1010001010000011 #
b1010001010000011 /
b10 "
b10 .
0(
b1000 '
b10001100110010101110100011000110110100000100000010000010110010001100100011100100110010101110011011100110010000000111000001000000010000000101000010011000101011100101001 6
b1010001010000011 7
b1000 5
b10 -
b100011001100101011101000110001101101000001000000100000101100100011001000111001001100101011100110111001100100000001101000010000000100000001010000100000101000100010001000100100100101001 3
b10100010000001010010011 4
#25000
1(
#30000
b10100101000010001100011 !
b10100101000010001100011 #
b10100101000010001100011 /
b100 "
b100 .
0(
b10000 '
b1000110011001010111010001100011011010000010000001000001011001000110010001110010011001010111001101110011001000000011000100110110001000000010100001000010010001010101000100101001 6
b10100101000010001100011 7
b10000 5
b11 -
b10001100110010101110100011000110110100000100000010000010110010001100100011100100110010101110011011100110010000000111000001000000010000000101000010011000101011100101001 3
b1010001010000011 4
#35000
1(
#40000
b100000000000000011101111 !
b100000000000000011101111 #
b100000000000000011101111 /
b110 "
b110 .
0(
b11000 '
b1000110011001010111010001100011011010000010000001000001011001000110010001110010011001010111001101110011001000000011001000110100001000000010100001001010010000010100110000101001 6
b100000000000000011101111 7
b11000 5
b100 -
b1000110011001010111010001100011011010000010000001000001011001000110010001110010011001010111001101110011001000000011000100110110001000000010100001000010010001010101000100101001 3
b10100101000010001100011 4
#45000
1(
#50000
b1000000011100111 !
b1000000011100111 #
b1000000011100111 /
b1000 "
b1000 .
0(
b100000 '
b100011001100101011101000110001101101000001000000100000101100100011001000111001001100101011100110111001100100000001100110011001000100000001010000100101001000001010011000101001000101001 6
b1000000011100111 7
b100000 5
b101 -
b1000110011001010111010001100011011010000010000001000001011001000110010001110010011001010111001101110011001000000011001000110100001000000010100001001010010000010100110000101001 3
b100000000000000011101111 4
#55000
1(
#60000
b101001010010111 !
b101001010010111 #
b101001010010111 /
b1010 "
b1010 .
0(
b101000 '
b10001100110010101110100011000110110100000100000010000010110010001100100011100100110010101110011011100110010000000110100001100000010000000101000010000010101010101001001010100000100001100101001 6
b101001010010111 7
b101000 5
b110 -
b100011001100101011101000110001101101000001000000100000101100100011001000111001001100101011100110111001100100000001100110011001000100000001010000100101001000001010011000101001000101001 3
b1000000011100111 4
#65000
1(
#70000
b10011 !
b10011 #
b10011 /
b1011 "
b1011 .
0(
b101100 '
b1000110011001010111010001100011011010000010000001000001011001000110010001110010011001010111001101110011001000000011010000110100001000000010100001001110010011110101000000101001 6
b10011 7
b101100 5
b111 -
b10001100110010101110100011000110110100000100000010000010110010001100100011100100110010101110011011100110010000000110100001100000010000000101000010000010101010101001001010100000100001100101001 3
b101001010010111 4
#75000
1(
#80000
b111111 "
b111111 .
0(
b11111100 '
b1000110011001010111010001100011011010000010000001000001011001000110010001110010011001010111001101110011001000000011001000110101001100100010100001001110010011110101000000101001 6
b11111100 5
b1000 -
b1000110011001010111010001100011011010000010000001000001011001000110010001110010011001010111001101110011001000000011010000110100001000000010100001001110010011110101000000101001 3
b10011 4
#85000
1(
#90000
0(
b1001 -
b1000110011001010111010001100011011010000010000001000001011001000110010001110010011001010111001101110011001000000011001000110101001100100010100001001110010011110101000000101001 3
